23.07.2015 16:06:25 - 
23.07.2015 16:06:25 - Script for add DNS record to domain version 1.0 is Running
23.07.2015 16:06:33 - 
23.07.2015 16:06:33 - Script for add DNS record to domain version 1.0 is Running
23.07.2015 16:07:23 - 
23.07.2015 16:07:23 - Script for add DNS record to domain version 1.0 is Running
23.07.2015 16:07:31 - 
23.07.2015 16:07:31 - Script for add DNS record to domain version 1.0 is Running
23.07.2015 16:07:40 - 
23.07.2015 16:07:40 - Script for add DNS record to domain version 1.0 is Running
23.07.2015 16:07:52 - 
23.07.2015 16:07:52 - Script for add DNS record to domain version 1.0 is Running
23.07.2015 16:08:00 - 
23.07.2015 16:08:00 - Script for add DNS record to domain version 1.0 is Running
23.07.2015 16:08:18 - 
23.07.2015 16:08:18 - Script for add DNS record to domain version 1.0 is Running
23.07.2015 16:08:48 - 
23.07.2015 16:08:48 - Script for add DNS record to domain version 1.0 is Running
23.07.2015 16:08:58 - 
23.07.2015 16:08:58 - Script for add DNS record to domain version 1.0 is Running
23.07.2015 16:09:48 - 
23.07.2015 16:09:48 - Script for add DNS record to domain version 1.0 is Running
23.07.2015 16:10:06 - 
23.07.2015 16:10:06 - Script for add DNS record to domain version 1.0 is Running
23.07.2015 16:10:13 - 
23.07.2015 16:10:13 - Script for add DNS record to domain version 1.0 is Running
23.07.2015 16:10:19 - 
23.07.2015 16:10:19 - Script for add DNS record to domain version 1.0 is Running
23.07.2015 16:10:31 - 
23.07.2015 16:10:31 - Script for add DNS record to domain version 1.0 is Running
23.07.2015 16:10:46 - 
23.07.2015 16:10:46 - Script for add DNS record to domain version 1.0 is Running
23.07.2015 16:15:00 - 
23.07.2015 16:15:00 - Script for add DNS record to domain version 1.0 is Running
23.07.2015 16:18:45 - 
23.07.2015 16:18:45 - Script for add DNS record to domain version 1.0 is Running
23.07.2015 16:30:28 - 
23.07.2015 16:30:28 - Script for add DNS record to domain version 1.0 is Running
23.07.2015 16:30:28 - Error! Wrong name on the file csv
23.07.2015 16:31:03 - 
23.07.2015 16:31:03 - Script for add DNS record to domain version 1.0 is Running
23.07.2015 16:31:03 - Error! Wrong name on the file csv
23.07.2015 16:32:06 - 
23.07.2015 16:32:06 - Script for add DNS record to domain version 1.0 is Running
23.07.2015 16:32:06 - Error! Wrong name on the file csv
23.07.2015 16:32:23 - 
23.07.2015 16:32:23 - Script for add DNS record to domain version 1.0 is Running
23.07.2015 16:32:23 - Error! Wrong name on the file csv
23.07.2015 16:32:34 - 
23.07.2015 16:32:34 - Script for add DNS record to domain version 1.0 is Running
23.07.2015 16:32:34 - Error! Wrong name on the file csv
23.07.2015 16:32:53 - 
23.07.2015 16:32:53 - Script for add DNS record to domain version 1.0 is Running
23.07.2015 16:33:08 - 
23.07.2015 16:33:08 - Script for add DNS record to domain version 1.0 is Running
23.07.2015 16:33:08 - Error! Wrong name on the file csv
23.07.2015 16:33:48 - 
23.07.2015 16:33:48 - Script for add DNS record to domain version 1.0 is Running
23.07.2015 16:33:58 - 
23.07.2015 16:33:58 - Script for add DNS record to domain version 1.0 is Running
23.07.2015 16:33:58 - Error! Wrong name on the file csv
23.07.2015 16:34:07 - 
23.07.2015 16:34:07 - Script for add DNS record to domain version 1.0 is Running
23.07.2015 16:34:07 - Error! Wrong name on the file csv
23.07.2015 16:34:16 - 
23.07.2015 16:34:16 - Script for add DNS record to domain version 1.0 is Running
23.07.2015 16:35:12 - 
23.07.2015 16:35:12 - Script for add DNS record to domain version 1.0 is Running
23.07.2015 16:59:27 - 
23.07.2015 16:59:27 - Script for add DNS record to domain version 1.0 is Running
23.07.2015 16:59:44 - 
23.07.2015 16:59:44 - Script for add DNS record to domain version 1.0 is Running
23.07.2015 17:15:40 - 
23.07.2015 17:15:40 - Script for add DNS record to domain version 1.0 is Running
23.07.2015 17:15:46 - 
23.07.2015 17:15:46 - Script for add DNS record to domain version 1.0 is Running
23.07.2015 17:22:31 - 
23.07.2015 17:22:31 - Script for add DNS record to domain version 1.0 is Running
23.07.2015 17:22:31 - Error! CSV file is not found!
23.07.2015 17:30:43 - 
23.07.2015 17:30:43 - Script for add DNS record to domain version 1.0 is Running
23.07.2015 17:30:43 - Parameters of a command line are accepted
23.07.2015 17:30:43 - Error! CSV file is not found!
23.07.2015 17:35:34 - 
23.07.2015 17:35:34 - Script for add DNS record to domain version 1.0 is Running
23.07.2015 17:35:34 - Parameters of a command line are accepted
23.07.2015 17:35:34 - Error! CSV file is not found!
23.07.2015 17:40:51 - 
23.07.2015 17:40:51 - Script for add DNS record to domain version 1.0 is Running
23.07.2015 17:40:51 - Parameters of a command line are accepted
23.07.2015 17:40:51 - Error! CSV file is not found!
23.07.2015 17:41:02 - 
23.07.2015 17:41:02 - Script for add DNS record to domain version 1.0 is Running
23.07.2015 17:41:02 - Parameters of a command line are accepted
23.07.2015 17:41:35 - 
23.07.2015 17:41:35 - Script for add DNS record to domain version 1.0 is Running
23.07.2015 17:41:35 - Parameters of a command line are accepted
23.07.2015 17:42:05 - 
23.07.2015 17:42:05 - Script for add DNS record to domain version 1.0 is Running
23.07.2015 17:42:05 - Parameters of a command line are accepted
23.07.2015 17:45:20 - 
23.07.2015 17:45:20 - Script for add DNS record to domain version 1.0 is Running
23.07.2015 17:45:20 - Parameters of a command line are accepted
23.07.2015 17:45:33 - 
23.07.2015 17:45:33 - Script for add DNS record to domain version 1.0 is Running
23.07.2015 17:45:33 - Parameters of a command line are accepted
23.07.2015 17:47:38 - 
23.07.2015 17:47:38 - Script for add DNS record to domain version 1.0 is Running
23.07.2015 17:47:38 - Parameters of a command line are accepted
23.07.2015 17:48:43 - 
23.07.2015 17:48:43 - Script for add DNS record to domain version 1.0 is Running
23.07.2015 17:48:43 - Parameters of a command line are accepted
23.07.2015 17:48:43 - Error! CSV file is not found!
23.07.2015 17:48:58 - 
23.07.2015 17:48:58 - Script for add DNS record to domain version 1.0 is Running
23.07.2015 17:48:58 - Parameters of a command line are accepted
23.07.2015 17:49:10 - 
23.07.2015 17:49:10 - Script for add DNS record to domain version 1.0 is Running
23.07.2015 17:49:10 - Parameters of a command line are accepted
23.07.2015 17:53:57 - 
23.07.2015 17:53:57 - Script for add DNS record to domain version 1.0 is Running
23.07.2015 17:53:57 - Parameters of a command line are accepted
23.07.2015 17:54:04 - 
23.07.2015 17:54:04 - Script for add DNS record to domain version 1.0 is Running
23.07.2015 17:54:04 - Parameters of a command line are accepted
23.07.2015 17:54:04 - Error! CSV file is not found!
23.07.2015 17:54:13 - 
23.07.2015 17:54:13 - Script for add DNS record to domain version 1.0 is Running
23.07.2015 17:54:13 - Parameters of a command line are accepted
23.07.2015 17:54:19 - 
23.07.2015 17:54:19 - Script for add DNS record to domain version 1.0 is Running
23.07.2015 17:54:19 - Parameters of a command line are accepted
23.07.2015 17:54:35 - 
23.07.2015 17:54:35 - Script for add DNS record to domain version 1.0 is Running
23.07.2015 17:54:35 - Parameters of a command line are accepted
23.07.2015 17:54:35 - Error! CSV file is not found!
23.07.2015 17:54:38 - 
23.07.2015 17:54:38 - Script for add DNS record to domain version 1.0 is Running
23.07.2015 17:54:38 - Parameters of a command line are accepted
23.07.2015 18:16:25 - 
23.07.2015 18:16:25 - Script for add DNS record to domain version 1.0 is Running
23.07.2015 18:16:25 - Parameters of a command line are accepted
27.07.2015 10:23:10 - 
27.07.2015 10:23:10 - Script for add DNS record to domain version 1.0 is Running
27.07.2015 10:23:11 - Parameters of a command line are accepted
27.07.2015 10:30:35 - 
27.07.2015 10:30:35 - Script for add DNS record to domain version 1.0 is Running
27.07.2015 10:30:35 - Parameters of a command line are accepted
27.07.2015 10:30:35 - CSV file is found
27.07.2015 10:30:52 - 
27.07.2015 10:30:52 - Script for add DNS record to domain version 1.0 is Running
27.07.2015 10:30:52 - Parameters of a command line are accepted
27.07.2015 10:30:52 - CSV file is found
27.07.2015 10:31:06 - 
27.07.2015 10:31:06 - Script for add DNS record to domain version 1.0 is Running
27.07.2015 10:31:06 - Parameters of a command line are accepted
27.07.2015 10:31:06 - CSV file is found
27.07.2015 10:34:29 - 
27.07.2015 10:34:29 - Script for add DNS record to domain version 1.0 is Running
27.07.2015 10:34:29 - Error! Wrong name on the file csv
27.07.2015 10:34:37 - 
27.07.2015 10:34:37 - Script for add DNS record to domain version 1.0 is Running
27.07.2015 10:34:37 - Parameters of a command line are accepted
27.07.2015 10:34:37 - CSV file is found
27.07.2015 10:34:42 - 
27.07.2015 10:34:42 - Script for add DNS record to domain version 1.0 is Running
27.07.2015 10:34:42 - Parameters of a command line are accepted
27.07.2015 10:34:42 - CSV file is found
27.07.2015 10:41:38 - 
27.07.2015 10:41:38 - Script for add DNS record to domain version 1.0 is Running
27.07.2015 10:41:38 - Parameters of a command line are accepted
27.07.2015 10:41:38 - Error! CSV file is not found!
27.07.2015 10:41:38 - CSV file is found
27.07.2015 10:41:42 - 
27.07.2015 10:41:42 - Script for add DNS record to domain version 1.0 is Running
27.07.2015 10:41:42 - Parameters of a command line are accepted
27.07.2015 10:41:42 - Error! CSV file is not found!
27.07.2015 10:41:42 - CSV file is found
27.07.2015 10:43:37 - 
27.07.2015 10:43:37 - Script for add DNS record to domain version 1.0 is Running
27.07.2015 10:43:37 - Parameters of a command line are accepted
27.07.2015 10:43:37 - CSV file is found
27.07.2015 10:43:42 - 
27.07.2015 10:43:42 - Script for add DNS record to domain version 1.0 is Running
27.07.2015 10:43:42 - Parameters of a command line are accepted
27.07.2015 10:43:42 - Error! CSV file is not found!
27.07.2015 10:43:42 - CSV file is found
27.07.2015 10:44:07 - 
27.07.2015 10:44:07 - Script for add DNS record to domain version 1.0 is Running
27.07.2015 10:44:07 - Parameters of a command line are accepted
27.07.2015 10:44:07 - CSV file is found
27.07.2015 10:44:28 - 
27.07.2015 10:44:28 - Script for add DNS record to domain version 1.0 is Running
27.07.2015 10:44:28 - Parameters of a command line are accepted
27.07.2015 10:44:28 - CSV file is found
27.07.2015 10:44:34 - 
27.07.2015 10:44:34 - Script for add DNS record to domain version 1.0 is Running
27.07.2015 10:44:34 - Parameters of a command line are accepted
27.07.2015 10:44:34 - Error! CSV file is not found!
27.07.2015 10:44:34 - CSV file is found
27.07.2015 10:47:23 - 
27.07.2015 10:47:23 - Script for add DNS record to domain version 1.0 is Running
27.07.2015 10:47:23 - Parameters of a command line are accepted
27.07.2015 10:47:23 - CSV file is found
27.07.2015 11:09:01 - 
27.07.2015 11:09:01 - Script for add DNS record to domain version 1.0 is Running
27.07.2015 11:09:01 - Parameters of a command line are accepted
27.07.2015 11:09:01 - CSV file is found
27.07.2015 11:09:01 - Opening CSV file: adddns.csv
27.07.2015 11:09:39 - 
27.07.2015 11:09:39 - Script for add DNS record to domain version 1.0 is Running
27.07.2015 11:09:39 - Parameters of a command line are accepted
27.07.2015 11:09:39 - CSV file is found
27.07.2015 11:09:39 - Opening CSV file: adddns.csv
27.07.2015 11:10:18 - 
27.07.2015 11:10:18 - Script for add DNS record to domain version 1.0 is Running
27.07.2015 11:10:18 - Parameters of a command line are accepted
27.07.2015 11:10:18 - CSV file is found
27.07.2015 11:10:18 - Opening CSV file: adddns.csv
27.07.2015 11:10:18 - Found 5 records
27.07.2015 11:15:52 - 
27.07.2015 11:15:52 - Script for add DNS record to domain version 1.0 is Running
27.07.2015 11:15:52 - Parameters of a command line are accepted
27.07.2015 11:15:52 - CSV file is found
27.07.2015 11:15:52 - Opening CSV file: adddns.csv
27.07.2015 11:15:52 - Found 5 records
27.07.2015 11:16:01 - 
27.07.2015 11:16:01 - Script for add DNS record to domain version 1.0 is Running
27.07.2015 11:16:01 - Parameters of a command line are accepted
27.07.2015 11:16:01 - CSV file is found
27.07.2015 11:16:01 - Opening CSV file: adddns.csv
27.07.2015 11:16:01 - Found 5 records
27.07.2015 11:16:08 - 
27.07.2015 11:16:08 - Script for add DNS record to domain version 1.0 is Running
27.07.2015 11:16:08 - Parameters of a command line are accepted
27.07.2015 11:16:08 - CSV file is found
27.07.2015 11:16:08 - Opening CSV file: adddns.csv
27.07.2015 11:16:08 - Found 5 records
27.07.2015 11:20:31 - 
27.07.2015 11:20:31 - Script for add DNS record to domain version 1.0 is Running
27.07.2015 11:20:31 - Parameters of a command line are accepted
27.07.2015 11:20:31 - CSV file is found
27.07.2015 11:20:31 - Opening CSV file: adddns.csv
27.07.2015 11:20:31 - Found 5 records
27.07.2015 11:20:31 - Error. The number of records is exceeded!
27.07.2015 11:20:37 - 
27.07.2015 11:20:37 - Script for add DNS record to domain version 1.0 is Running
27.07.2015 11:20:37 - Parameters of a command line are accepted
27.07.2015 11:20:37 - CSV file is found
27.07.2015 11:20:37 - Opening CSV file: adddns.csv
27.07.2015 11:20:37 - Found 5 records
27.07.2015 11:28:40 - 
27.07.2015 11:28:40 - Script for add DNS record to domain version 1.0 is Running
27.07.2015 11:28:40 - Parameters of a command line are accepted
27.07.2015 11:28:40 - Testing verification and availability of the adddns.csv file
27.07.2015 11:28:40 - CSV file is found
27.07.2015 11:28:40 - Opening CSV file: adddns.csv
27.07.2015 11:28:40 - Found 5 records
27.07.2015 11:30:14 - 
27.07.2015 11:30:14 - Script for add DNS record to domain version 1.0 is Running
27.07.2015 11:30:14 - Parameters of a command line are accepted
27.07.2015 11:30:14 - Testing verification and availability of the adddns.csv file
27.07.2015 11:30:14 - CSV file is found
27.07.2015 11:30:14 - Opening CSV file: adddns.csv
27.07.2015 11:30:14 - Found 5 records
27.07.2015 11:34:43 - 
27.07.2015 11:34:43 - Script for add DNS record to domain version 1.0 is Running
27.07.2015 11:34:43 - Parameters of a command line are accepted
27.07.2015 11:34:43 - Testing verification and availability of the adddns.csv file
27.07.2015 11:34:43 - CSV file is found
27.07.2015 11:34:43 - Opening CSV file: adddns.csv
27.07.2015 11:34:43 - Found 5 records
27.07.2015 11:34:51 - 
27.07.2015 11:34:51 - Script for add DNS record to domain version 1.0 is Running
27.07.2015 11:34:51 - Parameters of a command line are accepted
27.07.2015 11:34:51 - Testing verification and availability of the adddns.csv file
27.07.2015 11:34:51 - CSV file is found
27.07.2015 11:34:51 - Opening CSV file: adddns.csv
27.07.2015 11:34:51 - Found 5 records
27.07.2015 11:35:32 - 
27.07.2015 11:35:32 - Script for add DNS record to domain version 1.0 is Running
27.07.2015 11:35:32 - Parameters of a command line are accepted
27.07.2015 11:35:32 - Testing verification and availability of the adddns.csv file
27.07.2015 11:35:32 - CSV file is found
27.07.2015 11:35:32 - Opening CSV file: adddns.csv
27.07.2015 11:35:32 - Found 5 records
27.07.2015 11:35:39 - 
27.07.2015 11:35:39 - Script for add DNS record to domain version 1.0 is Running
27.07.2015 11:35:39 - Parameters of a command line are accepted
27.07.2015 11:35:39 - Testing verification and availability of the adddns.csv file
27.07.2015 11:35:39 - CSV file is found
27.07.2015 11:35:39 - Opening CSV file: adddns.csv
27.07.2015 11:35:39 - Found 5 records
27.07.2015 11:35:55 - 
27.07.2015 11:35:55 - Script for add DNS record to domain version 1.0 is Running
27.07.2015 11:35:55 - Parameters of a command line are accepted
27.07.2015 11:35:55 - Testing verification and availability of the adddns.csv file
27.07.2015 11:35:55 - CSV file is found
27.07.2015 11:35:55 - Opening CSV file: adddns.csv
27.07.2015 11:35:55 - Found 5 records
27.07.2015 11:36:06 - 
27.07.2015 11:36:06 - Script for add DNS record to domain version 1.0 is Running
27.07.2015 11:36:06 - Parameters of a command line are accepted
27.07.2015 11:36:06 - Testing verification and availability of the adddns.csv file
27.07.2015 11:36:06 - CSV file is found
27.07.2015 11:36:06 - Opening CSV file: adddns.csv
27.07.2015 11:36:06 - Found 5 records
27.07.2015 11:42:17 - 
27.07.2015 11:42:17 - Script for add DNS record to domain version 1.0 is Running
27.07.2015 11:42:17 - Parameters of a command line are accepted
27.07.2015 11:42:17 - Testing verification and availability of the adddns.csv file
27.07.2015 11:42:17 - CSV file is found
27.07.2015 11:42:17 - Opening CSV file: adddns.csv
27.07.2015 11:42:17 - Found 5 records
27.07.2015 11:42:50 - 
27.07.2015 11:42:50 - Script for add DNS record to domain version 1.0 is Running
27.07.2015 11:42:50 - Parameters of a command line are accepted
27.07.2015 11:42:50 - Testing verification and availability of the adddns.csv file
27.07.2015 11:42:50 - CSV file is found
27.07.2015 11:42:50 - Opening CSV file: adddns.csv
27.07.2015 11:42:50 - Found 5 records
27.07.2015 11:42:50 - Error! The column IP isn't found!
27.07.2015 11:46:43 - 
27.07.2015 11:46:43 - Script for add DNS record to domain version 1.0 is Running
27.07.2015 11:46:43 - Parameters of a command line are accepted
27.07.2015 11:46:43 - Testing verification and availability of the adddns.csv file
27.07.2015 11:46:43 - CSV file is found
27.07.2015 11:46:43 - Opening CSV file: adddns.csv
27.07.2015 11:46:43 - Found 5 records
27.07.2015 11:46:43 - Error! The column Host isn't found!
27.07.2015 11:46:59 - 
27.07.2015 11:46:59 - Script for add DNS record to domain version 1.0 is Running
27.07.2015 11:46:59 - Parameters of a command line are accepted
27.07.2015 11:46:59 - Testing verification and availability of the adddns.csv file
27.07.2015 11:46:59 - CSV file is found
27.07.2015 11:46:59 - Opening CSV file: adddns.csv
27.07.2015 11:46:59 - Found 5 records
27.07.2015 11:50:03 - 
27.07.2015 11:50:03 - Script for add DNS record to domain version 1.0 is Running
27.07.2015 11:50:03 - Parameters of a command line are accepted
27.07.2015 11:50:03 - Testing verification and availability of the adddns.csv file
27.07.2015 11:50:03 - CSV file is found
27.07.2015 11:50:03 - Opening CSV file: adddns.csv
27.07.2015 11:50:03 - Found 5 records
27.07.2015 12:13:24 - 
27.07.2015 12:13:24 - Script for add DNS record to domain version 1.0 is Running
27.07.2015 12:13:24 - Parameters of a command line are accepted
27.07.2015 12:13:24 - Testing verification and availability of the adddns.csv file
27.07.2015 12:13:24 - CSV file is found
27.07.2015 12:13:24 - Opening CSV file: adddns.csv
27.07.2015 12:13:24 - Found 5 records
27.07.2015 12:13:42 - 
27.07.2015 12:13:42 - Script for add DNS record to domain version 1.0 is Running
27.07.2015 12:13:42 - Parameters of a command line are accepted
27.07.2015 12:13:42 - Testing verification and availability of the adddns.csv file
27.07.2015 12:13:42 - CSV file is found
27.07.2015 12:13:42 - Opening CSV file: adddns.csv
27.07.2015 12:13:42 - Found 5 records
27.07.2015 12:25:03 - 
27.07.2015 12:25:03 - Script for add DNS record to domain version 1.0 is Running
27.07.2015 12:25:03 - Parameters of a command line are accepted
27.07.2015 12:25:03 - Testing verification and availability of the adddns.csv file
27.07.2015 12:25:03 - CSV file is found
27.07.2015 12:25:03 - Opening CSV file: adddns.csv
27.07.2015 12:25:03 - Found 5 records
27.07.2015 12:25:15 - 
27.07.2015 12:25:15 - Script for add DNS record to domain version 1.0 is Running
27.07.2015 12:25:15 - Parameters of a command line are accepted
27.07.2015 12:25:15 - Testing verification and availability of the adddns.csv file
27.07.2015 12:25:15 - CSV file is found
27.07.2015 12:25:15 - Opening CSV file: adddns.csv
27.07.2015 12:25:15 - Found 5 records
27.07.2015 12:25:15 - Error! The quantity of columns in the table has to be 2!
27.07.2015 12:32:45 - 
27.07.2015 12:32:45 - Script for add DNS record to domain version 1.0 is Running
27.07.2015 12:32:45 - Parameters of a command line are accepted
27.07.2015 12:32:45 - Testing verification and availability of the adddns.csv file
27.07.2015 12:32:45 - CSV file is found
27.07.2015 12:32:45 - Opening CSV file: adddns.csv
27.07.2015 12:32:45 - Found 5 records
27.07.2015 13:00:03 - 
27.07.2015 13:00:03 - Script for add DNS record to domain version 1.0 is Running
27.07.2015 13:00:03 - Parameters of a command line are accepted
27.07.2015 13:00:03 - Testing verification and availability of the adddns.csv file
27.07.2015 13:00:03 - CSV file is found
27.07.2015 13:00:03 - Opening CSV file: adddns.csv
27.07.2015 13:00:03 - Found 5 records
27.07.2015 13:01:06 - 
27.07.2015 13:01:06 - Script for add DNS record to domain version 1.0 is Running
27.07.2015 13:01:06 - Parameters of a command line are accepted
27.07.2015 13:01:06 - Testing verification and availability of the adddns.csv file
27.07.2015 13:01:06 - CSV file is found
27.07.2015 13:01:06 - Opening CSV file: adddns.csv
27.07.2015 13:01:06 - Found 5 records
27.07.2015 13:01:16 - 
27.07.2015 13:01:16 - Script for add DNS record to domain version 1.0 is Running
27.07.2015 13:01:16 - Parameters of a command line are accepted
27.07.2015 13:01:16 - Testing verification and availability of the adddns.csv file
27.07.2015 13:01:16 - CSV file is found
27.07.2015 13:01:16 - Opening CSV file: adddns.csv
27.07.2015 13:01:16 - Found 5 records
27.07.2015 13:01:26 - 
27.07.2015 13:01:26 - Script for add DNS record to domain version 1.0 is Running
27.07.2015 13:01:26 - Parameters of a command line are accepted
27.07.2015 13:01:26 - Testing verification and availability of the adddns.csv file
27.07.2015 13:01:26 - CSV file is found
27.07.2015 13:01:26 - Opening CSV file: adddns.csv
27.07.2015 13:01:26 - Found 5 records
27.07.2015 13:01:38 - 
27.07.2015 13:01:38 - Script for add DNS record to domain version 1.0 is Running
27.07.2015 13:01:38 - Parameters of a command line are accepted
27.07.2015 13:01:38 - Testing verification and availability of the adddns.csv file
27.07.2015 13:01:38 - CSV file is found
27.07.2015 13:01:38 - Opening CSV file: adddns.csv
27.07.2015 13:01:38 - Found 5 records
27.07.2015 13:03:14 - 
27.07.2015 13:03:14 - Script for add DNS record to domain version 1.0 is Running
27.07.2015 13:03:14 - Parameters of a command line are accepted
27.07.2015 13:03:14 - Testing verification and availability of the adddns.csv file
27.07.2015 13:03:14 - CSV file is found
27.07.2015 13:03:14 - Opening CSV file: adddns.csv
27.07.2015 13:03:14 - Found 5 records
27.07.2015 13:03:30 - 
27.07.2015 13:03:30 - Script for add DNS record to domain version 1.0 is Running
27.07.2015 13:03:30 - Parameters of a command line are accepted
27.07.2015 13:03:30 - Testing verification and availability of the adddns.csv file
27.07.2015 13:03:30 - CSV file is found
27.07.2015 13:03:30 - Opening CSV file: adddns.csv
27.07.2015 13:03:30 - Found 5 records
27.07.2015 14:47:04 - 
27.07.2015 14:47:04 - Script for add DNS record to domain version 1.0 is Running
27.07.2015 14:47:04 - Parameters of a command line are accepted
27.07.2015 14:47:04 - Testing verification and availability of the adddns.csv file
27.07.2015 14:47:04 - CSV file is found
27.07.2015 14:47:04 - Opening CSV file: adddns.csv
27.07.2015 14:47:04 - Found 5 records
27.07.2015 14:47:22 - 
27.07.2015 14:47:22 - Script for add DNS record to domain version 1.0 is Running
27.07.2015 14:47:22 - Parameters of a command line are accepted
27.07.2015 14:47:22 - Testing verification and availability of the adddns.csv file
27.07.2015 14:47:22 - CSV file is found
27.07.2015 14:47:22 - Opening CSV file: adddns.csv
27.07.2015 14:47:22 - Found 5 records
27.07.2015 14:47:39 - 
27.07.2015 14:47:39 - Script for add DNS record to domain version 1.0 is Running
27.07.2015 14:47:39 - Parameters of a command line are accepted
27.07.2015 14:47:39 - Testing verification and availability of the adddns.csv file
27.07.2015 14:47:39 - CSV file is found
27.07.2015 14:47:39 - Opening CSV file: adddns.csv
27.07.2015 14:47:39 - Found 5 records
27.07.2015 15:07:55 - 
27.07.2015 15:07:55 - Script for add DNS record to domain version 1.0 is Running
27.07.2015 15:07:55 - Parameters of a command line are accepted
27.07.2015 15:07:55 - Testing verification and availability of the adddns.csv file
27.07.2015 15:07:55 - CSV file is found
27.07.2015 15:07:55 - Opening CSV file: adddns.csv
27.07.2015 15:07:55 - Found 5 records
27.07.2015 15:08:07 - 
27.07.2015 15:08:07 - Script for add DNS record to domain version 1.0 is Running
27.07.2015 15:08:07 - Parameters of a command line are accepted
27.07.2015 15:08:07 - Testing verification and availability of the adddns.csv file
27.07.2015 15:08:07 - CSV file is found
27.07.2015 15:08:07 - Opening CSV file: adddns.csv
27.07.2015 15:08:07 - Found 5 records
27.07.2015 15:29:29 - 
27.07.2015 15:29:29 - Script for add DNS record to domain version 1.0 is Running
27.07.2015 15:29:29 - Parameters of a command line are accepted
27.07.2015 15:29:29 - Testing verification and availability of the adddns.csv file
27.07.2015 15:29:29 - CSV file is found
27.07.2015 15:29:29 - Opening CSV file: adddns.csv
27.07.2015 15:29:29 - Found 5 records
27.07.2015 15:29:42 - 
27.07.2015 15:29:42 - Script for add DNS record to domain version 1.0 is Running
27.07.2015 15:29:42 - Parameters of a command line are accepted
27.07.2015 15:29:42 - Testing verification and availability of the adddns.csv file
27.07.2015 15:29:42 - CSV file is found
27.07.2015 15:29:42 - Opening CSV file: adddns.csv
27.07.2015 15:29:42 - Found 5 records
27.07.2015 15:38:38 - 
27.07.2015 15:38:38 - Script for add DNS record to domain version 1.0 is Running
27.07.2015 15:38:38 - Parameters of a command line are accepted
27.07.2015 15:38:38 - Testing verification and availability of the adddns.csv file
27.07.2015 15:38:38 - CSV file is found
27.07.2015 15:38:38 - Opening CSV file: adddns.csv
27.07.2015 15:38:38 - Found 5 records
27.07.2015 15:38:43 - Error! Error of input of a name of the domain
27.07.2015 15:43:45 - 
27.07.2015 15:43:45 - Script for add DNS record to domain version 1.0 is Running
27.07.2015 15:43:45 - Parameters of a command line are accepted
27.07.2015 15:43:45 - Testing verification and availability of the adddns.csv file
27.07.2015 15:43:45 - CSV file is found
27.07.2015 15:43:45 - Opening CSV file: adddns.csv
27.07.2015 15:43:45 - Found 5 records
27.07.2015 15:43:49 - Error! Error when reading a name of the domain!
27.07.2015 16:24:44 - 
27.07.2015 16:24:44 - Script for add DNS record to domain version 1.0 is Running
27.07.2015 16:24:44 - Parameters of a command line are accepted
27.07.2015 16:24:44 - Testing verification and availability of the adddns.csv file
27.07.2015 16:24:44 - CSV file is found
27.07.2015 16:24:44 - Opening CSV file: adddns.csv
27.07.2015 16:24:44 - Found 5 records
27.07.2015 16:24:47 - Error! Error when reading a name of the domain!
27.07.2015 16:29:59 - 
27.07.2015 16:29:59 - Script for add DNS record to domain version 1.0 is Running
27.07.2015 16:29:59 - Parameters of a command line are accepted
27.07.2015 16:29:59 - Testing verification and availability of the adddns.csv file
27.07.2015 16:29:59 - CSV file is found
27.07.2015 16:29:59 - Opening CSV file: adddns.csv
27.07.2015 16:29:59 - Found 5 records
27.07.2015 16:30:01 - Error! Error when reading a name of the domain!
27.07.2015 16:42:20 - 
27.07.2015 16:42:20 - Script for add DNS record to domain version 1.0 is Running
27.07.2015 16:42:20 - Parameters of a command line are accepted
27.07.2015 16:42:20 - Testing verification and availability of the adddns.csv file
27.07.2015 16:42:20 - CSV file is found
27.07.2015 16:42:20 - Opening CSV file: adddns.csv
27.07.2015 16:42:20 - Found 5 records
27.07.2015 16:42:22 - Error! Error when reading a name of the domain!
28.07.2015 17:37:41 - 
28.07.2015 17:37:41 - Script for add DNS record to domain version 1.0 is Running
28.07.2015 17:37:41 - Parameters of a command line are accepted
28.07.2015 17:37:41 - Testing verification and availability of the adddns.csv file
28.07.2015 17:37:41 - CSV file is found
28.07.2015 17:37:41 - Opening CSV file: adddns.csv
28.07.2015 17:37:41 - Found 5 records
28.07.2015 17:37:44 - Error! Error when reading a name of the domain!
28.07.2015 18:00:08 - 
28.07.2015 18:00:08 - Script for add DNS record to domain version 1.0 is Running
28.07.2015 18:00:08 - Parameters of a command line are accepted
28.07.2015 18:00:08 - Testing verification and availability of the adddns.csv file
28.07.2015 18:00:08 - CSV file is found
28.07.2015 18:00:08 - Opening CSV file: adddns.csv
28.07.2015 18:00:08 - Found 5 records
28.07.2015 18:00:10 - Error! Error when reading a name of the domain!
